<?xml version="1.0" encoding="utf-8"?>
<!-- Generator: Adobe Illustrator 21.1.0, SVG Export Plug-In . SVG Version: 6.00 Build 0)  -->
<svg version="1.1" id="Layer_1" xmlns="http://www.w3.org/2000/svg" xmlns:xlink="http://www.w3.org/1999/xlink" x="0px" y="0px"
	 viewBox="0 0 16 16" style="enable-background:new 0 0 16 16;" xml:space="preserve">
<style type="text/css">
	.st0{fill:#00ACE8;}
	.st1{fill:#3C3C3C;}
</style>
<title>ico-content</title>
<circle class="st0" cx="8" cy="2.1" r="2.1"/>
<circle class="st0" cx="8" cy="13.9" r="2.1"/>
<circle class="st0" cx="13.9" cy="13.9" r="2.1"/>
<circle class="st0" cx="2.1" cy="13.9" r="2.1"/>
<path class="st1" d="M13.2,11.4c0.2-0.1,0.4-0.1,0.7-0.1c0.2,0,0.5,0,0.7,0.1V8.1c0-0.6-0.4-1-1-1H8.7V4.6C8.5,4.7,8.2,4.7,8,4.7
	s-0.5,0-0.7-0.1v2.5H2.4c-0.6,0-1,0.4-1,1v3.3c0.2-0.1,0.4-0.1,0.7-0.1c0.2,0,0.5,0,0.7,0.1V8.2h4.5v3.2c0.2-0.1,0.4-0.1,0.7-0.1
	s0.5,0,0.7,0.1V8.2h4.5V11.4z"/>
</svg>
