<?xml version="1.0" encoding="utf-8"?>
<!-- Generator: Adobe Illustrator 21.0.2, SVG Export Plug-In . SVG Version: 6.00 Build 0)  -->
<svg version="1.1" id="Layer_1" xmlns:sketch="http://www.bohemiancoding.com/sketch/ns"
	 xmlns="http://www.w3.org/2000/svg" xmlns:xlink="http://www.w3.org/1999/xlink" x="0px" y="0px" viewBox="0 0 125 30"
	 style="enable-background:new 0 0 125 30;" xml:space="preserve">
<style type="text/css">
	.st0{fill:#F0563D;}
	.st1{fill:#EB7B23;}
	.st2{fill:#F4BC18;}
	.st3{fill:#00BCF0;}
	.st4{fill:#75BC43;}
	.st5{fill:#4F86C6;}
	.st6{fill:#05B4A1;}
</style>
<g>
	<g>
		<g>
			<path class="st0" d="M12.8,21.5c-3.5,0-6.3-2.8-6.3-6.3c0-1,0.2-1.9,0.7-2.8c0.2-0.5,0.8-0.6,1.2-0.4c0.5,0.2,0.6,0.8,0.4,1.2
				c-0.3,0.6-0.5,1.3-0.5,2c0,2.4,2,4.4,4.4,4.4c2.4,0,4.4-2,4.4-4.4c0-2.4-2-4.4-4.4-4.4c-0.7,0-1.5,0.2-2.1,0.6
				c-0.4,0.2-1,0.1-1.2-0.4c-0.2-0.4-0.1-1,0.4-1.2c0.9-0.5,2-0.8,3-0.8c3.5,0,6.3,2.8,6.3,6.3C19,18.7,16.2,21.5,12.8,21.5z"/>
		</g>
		<g>
			<path class="st1" d="M5.4,20.7c-0.3,0-0.6-0.2-0.8-0.5c-0.9-1.5-1.4-3.2-1.4-4.9c0-4.9,3.6-8.9,8.4-9.5c0.5-0.1,1,0.3,1.1,0.8
				c0.1,0.5-0.3,1-0.8,1.1C8,8.1,5.1,11.4,5.1,15.3c0,1.4,0.4,2.7,1.1,3.9c0.3,0.5,0.1,1-0.3,1.3C5.7,20.6,5.6,20.7,5.4,20.7z"/>
		</g>
		<g>
			<path class="st2" d="M12.8,24.8c-2.1,0-4.1-0.7-5.7-1.9c-0.4-0.3-0.5-0.9-0.2-1.3c0.3-0.4,0.9-0.5,1.3-0.2c1.3,1,2.9,1.5,4.6,1.5
				c1.6,0,3.2-0.5,4.5-1.5c0.4-0.3,1-0.2,1.3,0.2c0.3,0.4,0.2,1-0.2,1.3C16.8,24.2,14.8,24.8,12.8,24.8z"/>
		</g>
		<g>
			<path class="st3" d="M20.9,19.1c-0.1,0-0.2,0-0.3-0.1c-0.5-0.2-0.8-0.7-0.6-1.2c0.3-0.8,0.4-1.7,0.4-2.5c0-2.4-1.1-4.7-3.1-6.1
				c-0.4-0.3-0.5-0.9-0.2-1.3c0.3-0.4,0.9-0.5,1.3-0.2c2.4,1.8,3.8,4.7,3.8,7.7c0,1.1-0.2,2.1-0.5,3.2
				C21.6,18.8,21.3,19.1,20.9,19.1z"/>
		</g>
		<g>
			<path class="st3" d="M2,14.4c0.1-1.7,0.7-3.3,1.5-4.7c0.3-0.5,0.1-1-0.3-1.3c-0.5-0.3-1-0.1-1.3,0.3c-1,1.7-1.7,3.6-1.8,5.6
				c0,0.5,0.3,1,0.9,1c0,0,0.1,0,0.1,0C1.5,15.3,2,14.9,2,14.4z"/>
			<path class="st4" d="M6.9,24.3c-1.4-0.9-2.6-2.2-3.4-3.6c-0.3-0.5-0.8-0.6-1.3-0.3c-0.5,0.3-0.6,0.9-0.3,1.3c1,1.7,2.4,3.2,4,4.2
				C6,26,6.1,26.1,6.3,26.1c0.3,0,0.6-0.2,0.8-0.4C7.4,25.2,7.3,24.6,6.9,24.3z"/>
			<path class="st5" d="M13.3,4.5c0.5,0,1-0.4,1-0.9c0-0.5-0.4-1-0.9-1c-0.2,0-0.4,0-0.6,0c-1.8,0-3.5,0.4-5.1,1.1
				C7.1,3.9,6.9,4.4,7.1,4.9C7.3,5.3,7.6,5.5,8,5.5c0.1,0,0.3,0,0.4-0.1c1.4-0.6,2.8-0.9,4.3-0.9C12.9,4.5,13.1,4.5,13.3,4.5z"/>
			<path class="st6" d="M24.5,14.3c-0.5,0-1,0.4-1,1c0,1.7-0.4,3.3-1.1,4.8c-0.2,0.5,0,1,0.4,1.3c0.1,0.1,0.3,0.1,0.4,0.1
				c0.3,0,0.7-0.2,0.9-0.5c0.9-1.8,1.3-3.7,1.3-5.7C25.4,14.8,25,14.3,24.5,14.3z"/>
			<path class="st1" d="M17.9,24.8c-1.5,0.8-3.1,1.2-4.8,1.3c-0.5,0-0.9,0.5-0.9,1c0,0.5,0.4,0.9,1,0.9c0,0,0,0,0,0
				c2-0.1,3.9-0.6,5.7-1.5c0.5-0.3,0.6-0.8,0.4-1.3C18.9,24.7,18.3,24.5,17.9,24.8z"/>
			<path class="st0" d="M23.3,11.2c0.1,0,0.3,0,0.4-0.1c0.5-0.2,0.7-0.8,0.4-1.3c-0.8-1.8-2.1-3.3-3.7-4.6c-0.4-0.3-1-0.2-1.3,0.2
				c-0.3,0.4-0.2,1,0.2,1.3c1.3,1,2.4,2.4,3.1,3.9C22.6,11,23,11.2,23.3,11.2z"/>
		</g>
	</g>
	<g>
		<path class="st0" d="M34.3,14.9c0,0.5,0.1,1.1,0.2,1.6c0.1,0.6,0.4,1.1,0.6,1.5c0.3,0.5,0.6,0.8,1.1,1.1c0.4,0.3,1,0.4,1.6,0.4
			c0.5,0,1-0.1,1.5-0.1c0.4-0.1,0.8-0.1,1.1-0.1c0.3,0,0.6,0.1,0.7,0.2c0.2,0.2,0.3,0.5,0.3,1c-0.4,0.1-0.7,0.2-1.1,0.3
			C40,20.9,39.6,21,39.1,21c-0.4,0.1-0.9,0.1-1.4,0.1c-0.9,0-1.7-0.1-2.5-0.5c-0.8-0.3-1.4-0.8-1.9-1.3c-0.5-0.6-0.9-1.2-1.2-2
			c-0.3-0.8-0.4-1.6-0.5-2.4c0-0.8,0.1-1.7,0.4-2.4c0.3-0.8,0.7-1.4,1.2-2c0.5-0.6,1.2-1,1.9-1.4c0.7-0.3,1.6-0.5,2.5-0.5
			c0.5,0,1,0,1.4,0.1c0.4,0.1,0.8,0.1,1.2,0.2C40.6,8.9,41,9,41.3,9.1c0,0.5-0.1,0.8-0.3,1c-0.2,0.2-0.4,0.2-0.7,0.2
			c-0.3,0-0.7,0-1.1-0.1c-0.4-0.1-0.9-0.1-1.5-0.1c-0.6,0-1.1,0.2-1.5,0.5c-0.4,0.3-0.8,0.7-1.1,1.1c-0.3,0.5-0.5,1-0.6,1.5
			C34.4,13.8,34.3,14.4,34.3,14.9z"/>
		<path class="st0" d="M50.8,20.8c-0.2,0-0.4,0-0.6-0.1c-0.2,0-0.4-0.1-0.5-0.2c-0.1-0.1-0.3-0.3-0.3-0.5c-0.1-0.2-0.1-0.5-0.1-0.8
			l0-2.9c0-0.6-0.1-1.1-0.2-1.5c-0.1-0.4-0.2-0.7-0.4-0.9c-0.2-0.2-0.4-0.4-0.6-0.5c-0.2-0.1-0.5-0.1-0.8-0.2c-0.3,0-0.6,0-0.8,0.1
			c-0.3,0.1-0.5,0.2-0.7,0.5c-0.2,0.2-0.4,0.5-0.5,0.9c-0.1,0.4-0.2,0.8-0.2,1.4l0.1,4.6l-0.7,0c-0.2,0-0.4,0-0.6-0.1
			c-0.2,0-0.4-0.1-0.5-0.2c-0.1-0.1-0.3-0.3-0.3-0.5c-0.1-0.2-0.1-0.5-0.1-0.8L42.7,8.5l0.7,0c0.2,0,0.4,0,0.6,0.1
			c0.2,0,0.4,0.1,0.5,0.2c0.1,0.1,0.3,0.3,0.3,0.5C44.9,9.5,45,9.7,45,10l0,2.7c0.2-0.1,0.3-0.3,0.5-0.4c0.2-0.1,0.4-0.2,0.6-0.3
			c0.2-0.1,0.5-0.2,0.9-0.2c0.5,0,1,0,1.5,0.2c0.5,0.2,1,0.4,1.4,0.8c0.4,0.4,0.8,0.9,1,1.5c0.3,0.6,0.4,1.3,0.4,2.2l0,4.5
			L50.8,20.8z"/>
		<path class="st0" d="M56.8,11.6c0.3,0,0.7,0,1.2,0c0.4,0,0.8,0.2,1.2,0.4c0.4,0.2,0.7,0.6,1,1.1c0.3,0.5,0.4,1.2,0.4,2.2l0.1,5.4
			l-0.7,0c-0.3,0-0.6,0-0.9-0.1c-0.3-0.1-0.4-0.3-0.6-0.6c-0.2,0.2-0.4,0.4-0.7,0.6c-0.3,0.2-0.8,0.3-1.4,0.4c-0.5,0-0.9,0-1.4-0.1
			c-0.5-0.1-0.8-0.3-1.2-0.5c-0.4-0.3-0.6-0.6-0.8-1c-0.2-0.4-0.3-0.9-0.3-1.4c0-1.1,0.5-1.9,1.5-2.3c1-0.4,2.4-0.5,4.2-0.2
			c0.1-0.4,0-0.8-0.1-1.1c-0.1-0.3-0.2-0.5-0.5-0.8c-0.3-0.2-0.7-0.3-1.2-0.3c-0.5,0-1,0.1-1.4,0.1c-0.4,0.1-0.7,0.1-1,0.1
			c-0.3,0-0.5-0.1-0.6-0.2c-0.1-0.2-0.2-0.5-0.2-1c0.3-0.1,0.6-0.2,0.9-0.3c0.3-0.1,0.6-0.2,1.1-0.2C55.8,11.7,56.3,11.6,56.8,11.6z
			 M56.4,19.2c0.3,0,0.5,0,0.8-0.1c0.3-0.1,0.5-0.2,0.7-0.4c0.2-0.2,0.3-0.4,0.5-0.7c0.1-0.3,0.1-0.7,0.1-1.2
			c-0.2,0-0.4-0.1-0.6-0.1c-0.2,0-0.4,0-0.7-0.1c-0.3,0-0.5,0-0.8,0c-0.2,0-0.4,0-0.5,0.1c-0.2,0-0.4,0.1-0.5,0.2
			c-0.2,0.1-0.3,0.3-0.4,0.4c-0.1,0.2-0.1,0.4-0.1,0.6c0,0.3,0,0.5,0.1,0.6c0.1,0.2,0.2,0.3,0.4,0.4c0.1,0.1,0.3,0.2,0.5,0.2
			C56,19.2,56.2,19.2,56.4,19.2z"/>
		<path class="st0" d="M66.4,13.2c-0.5-0.1-1,0.1-1.3,0.6c-0.3,0.4-0.5,1.2-0.5,2.3l0.1,4.6l-0.7,0c-0.2,0-0.4,0-0.6-0.1
			c-0.2,0-0.4-0.1-0.5-0.2c-0.1-0.1-0.3-0.3-0.3-0.5c-0.1-0.2-0.1-0.5-0.1-0.8l-0.1-7.5l0.7,0c0.4,0,0.7,0,1,0.2
			c0.3,0.1,0.5,0.3,0.6,0.7c0.1-0.1,0.1-0.2,0.2-0.3c0.1-0.1,0.2-0.2,0.4-0.3c0.1-0.1,0.3-0.2,0.5-0.3c0.2-0.1,0.4-0.1,0.6-0.2
			c0.4,0,0.8,0,1.1,0c0.3,0,0.5,0.1,0.7,0.2c0.2,0.1,0.4,0.2,0.6,0.3c0,0.3-0.1,0.5-0.3,0.7c-0.1,0.2-0.4,0.3-0.6,0.5
			C67.3,13.3,66.9,13.3,66.4,13.2z"/>
		<path class="st0" d="M73.3,11.4c0.3,0,0.7,0,1.2,0c0.4,0,0.8,0.2,1.2,0.4c0.4,0.2,0.7,0.6,1,1.1c0.3,0.5,0.4,1.2,0.4,2.2l0.1,5.4
			l-0.7,0c-0.3,0-0.6,0-0.9-0.1c-0.3-0.1-0.4-0.3-0.6-0.6c-0.2,0.2-0.4,0.4-0.7,0.6c-0.3,0.2-0.8,0.3-1.4,0.4c-0.5,0-0.9,0-1.4-0.1
			c-0.5-0.1-0.9-0.3-1.2-0.5c-0.3-0.3-0.6-0.6-0.8-1c-0.2-0.4-0.3-0.9-0.3-1.4c0-1.1,0.5-1.9,1.5-2.3c1-0.4,2.4-0.5,4.2-0.2
			c0.1-0.4,0-0.8-0.1-1.1c-0.1-0.3-0.2-0.5-0.5-0.8c-0.3-0.2-0.7-0.3-1.2-0.3c-0.5,0-1,0.1-1.4,0.1c-0.4,0.1-0.7,0.1-1,0.1
			c-0.3,0-0.5-0.1-0.6-0.2c-0.1-0.2-0.2-0.5-0.2-1c0.3-0.1,0.6-0.2,0.9-0.3c0.3-0.1,0.6-0.2,1.1-0.2C72.3,11.5,72.8,11.5,73.3,11.4z
			 M72.9,19.1c0.3,0,0.5,0,0.8-0.1c0.3-0.1,0.5-0.2,0.7-0.4c0.2-0.2,0.3-0.4,0.5-0.7c0.1-0.3,0.1-0.7,0.1-1.2
			c-0.2,0-0.4-0.1-0.6-0.1c-0.2,0-0.4,0-0.7-0.1c-0.3,0-0.5,0-0.8,0c-0.2,0-0.4,0-0.5,0.1c-0.2,0-0.4,0.1-0.5,0.2
			c-0.2,0.1-0.3,0.3-0.4,0.4c-0.1,0.2-0.1,0.4-0.1,0.6c0,0.3,0,0.5,0.1,0.6c0.1,0.2,0.2,0.3,0.4,0.4c0.1,0.1,0.3,0.2,0.5,0.2
			C72.5,19,72.7,19.1,72.9,19.1z"/>
		<path class="st0" d="M82.9,19.1c0.5,0,1-0.1,1.4-0.1c0.4-0.1,0.7-0.1,1-0.1c0.3,0,0.5,0.1,0.6,0.2c0.1,0.2,0.2,0.5,0.2,1
			c-0.3,0.1-0.6,0.2-0.9,0.3c-0.3,0.1-0.6,0.2-1,0.2c-0.4,0.1-0.9,0.1-1.3,0.1c-0.5,0-1.1-0.1-1.6-0.2c-0.5-0.2-1-0.4-1.4-0.8
			c-0.4-0.4-0.7-0.8-1-1.4c-0.3-0.6-0.4-1.3-0.4-2.2c0-0.8,0.1-1.6,0.4-2.2c0.2-0.6,0.6-1.1,1-1.5c0.4-0.4,0.9-0.6,1.4-0.8
			c0.5-0.2,1-0.3,1.6-0.3c0.5,0,0.9,0,1.3,0.1c0.4,0.1,0.8,0.1,1.1,0.2c0.3,0.1,0.7,0.2,0.9,0.3c0,0.5-0.1,0.8-0.2,1
			c-0.1,0.2-0.3,0.2-0.6,0.2c-0.3,0-0.6,0-1-0.1c-0.4-0.1-0.9-0.1-1.4-0.1c-0.6,0-1.1,0.3-1.5,0.7c-0.4,0.5-0.6,1.3-0.6,2.4
			c0,1.1,0.2,1.9,0.6,2.4C81.8,18.9,82.3,19.1,82.9,19.1z"/>
		<path class="st0" d="M92.2,11.4c0,0.2,0,0.4-0.1,0.6c0,0.2-0.1,0.4-0.2,0.5c-0.1,0.1-0.3,0.3-0.5,0.3C91.3,13,91,13,90.7,13
			l-0.9,0l0.1,7.4l-0.7,0c-0.2,0-0.4,0-0.6,0c-0.2,0-0.4-0.1-0.5-0.2c-0.2-0.1-0.3-0.3-0.3-0.5c-0.1-0.2-0.1-0.5-0.1-0.8L87.5,8
			l0.7,0c0.2,0,0.4,0,0.6,0.1c0.2,0,0.4,0.1,0.5,0.2c0.1,0.1,0.3,0.3,0.3,0.5c0.1,0.2,0.1,0.5,0.1,0.8l0,1.9L92.2,11.4z"/>
		<path class="st0" d="M95,15.1c0.1-0.7,0.3-1.3,0.7-1.8c0.4-0.4,0.8-0.6,1.3-0.6c0.6,0,1.1,0.1,1.4,0.4c0.3,0.3,0.4,0.6,0.4,1
			c0,0.3-0.2,0.6-0.4,0.8c-0.2,0.2-0.5,0.3-0.8,0.4c-0.5,0.1-1,0.1-1.4,0.3c-0.4,0.2-0.8,0.6-0.9,1.1c1,0.2,1.8,0.3,2.5,0.2
			c0.8-0.1,1.4-0.2,1.8-0.5c0.5-0.3,0.8-0.6,1-1c0.2-0.4,0.3-0.8,0.3-1.3c0-0.5-0.1-1-0.3-1.4c-0.2-0.4-0.6-0.7-1-1
			c-0.4-0.3-0.8-0.4-1.3-0.5c-0.5-0.1-1-0.1-1.5-0.1c-0.5,0-1.1,0.2-1.6,0.3c-0.5,0.2-1,0.5-1.4,0.8c-0.4,0.4-0.7,0.8-1,1.4
			c-0.2,0.6-0.4,1.3-0.4,2.1c0,0.8,0.1,1.6,0.4,2.2c0.3,0.6,0.6,1.1,1,1.4c0.4,0.4,0.9,0.6,1.4,0.8c0.5,0.2,1.1,0.2,1.6,0.2
			c0.6,0,1.1,0,1.5-0.1c0.4-0.1,0.8-0.1,1.1-0.2c0.4-0.1,0.7-0.2,0.9-0.3c0-0.4-0.1-0.7-0.2-0.9c-0.2-0.2-0.4-0.2-0.7-0.3
			c-0.3,0-0.7,0-1.1,0.1c-0.4,0.1-0.9,0.1-1.5,0.1c-0.5,0-1-0.2-1.4-0.5c-0.4-0.4-0.6-0.9-0.7-1.5C95,16.3,94.9,15.7,95,15.1z"/>
		<path class="st0" d="M106.6,12.8c-0.5-0.1-1,0.1-1.3,0.6c-0.3,0.4-0.5,1.2-0.5,2.3l0.1,4.6l-0.7,0c-0.2,0-0.4,0-0.6-0.1
			c-0.2,0-0.4-0.1-0.5-0.2c-0.1-0.1-0.3-0.3-0.3-0.5c-0.1-0.2-0.1-0.5-0.1-0.8l-0.1-7.5l0.7,0c0.4,0,0.7,0,1,0.2
			c0.3,0.1,0.5,0.3,0.6,0.7c0.1-0.1,0.1-0.2,0.2-0.3c0.1-0.1,0.2-0.2,0.4-0.3c0.1-0.1,0.3-0.2,0.5-0.3c0.2-0.1,0.4-0.1,0.6-0.2
			c0.4,0,0.8,0,1.1,0c0.3,0,0.5,0.1,0.7,0.2c0.2,0.1,0.4,0.2,0.6,0.3c0,0.3-0.1,0.5-0.3,0.7c-0.1,0.2-0.4,0.3-0.6,0.4
			C107.6,12.8,107.2,12.9,106.6,12.8z"/>
		<path class="st0" d="M113.6,7.8c0.2,0,0.4,0.1,0.5,0.2c0.1,0.1,0.3,0.3,0.3,0.5c0.1,0.2,0.1,0.5,0.1,0.8l0.1,10.9l-0.7,0
			c-0.2,0-0.4,0-0.6-0.1c-0.2,0-0.4-0.1-0.5-0.2c-0.1-0.1-0.3-0.3-0.3-0.5c-0.1-0.2-0.1-0.5-0.1-0.8l-0.1-10.9l0.7,0
			C113.2,7.8,113.4,7.8,113.6,7.8z"/>
		<path class="st0" d="M122.3,12.4c0.2-0.5,0.5-0.9,0.8-1.1c0.3-0.2,0.6-0.3,0.9-0.4c0.3,0,0.7,0,1,0.1c-0.2,0.6-0.5,1.4-0.9,2.2
			c-0.3,0.8-0.7,1.7-1.2,2.7c-0.4,0.9-0.9,1.9-1.4,2.9c-0.5,1-1.1,1.9-1.7,2.8c-0.3,0.4-0.6,0.7-0.9,0.8c-0.3,0.2-0.7,0.3-1,0.3
			c-0.4,0-0.7,0-1.1-0.1c0.2-0.3,0.5-0.8,0.8-1.2c0.3-0.4,0.5-0.9,0.9-1.5c0.3-0.6,0.7-1.3,1.1-2.1c-0.4-0.4-0.8-0.9-1.2-1.4
			c-0.4-0.5-0.7-1-1-1.5c-0.3-0.5-0.6-1-0.8-1.6c-0.2-0.5-0.5-1-0.7-1.5c0-0.1-0.1-0.2-0.1-0.3c0-0.1-0.1-0.2-0.1-0.3
			c0-0.1-0.1-0.2-0.1-0.3c0.4-0.1,0.7-0.1,1.1-0.1c0.3,0,0.6,0.1,0.9,0.3c0.3,0.1,0.5,0.4,0.7,0.8c0.5,1,0.9,1.9,1.3,2.5
			c0.4,0.6,0.7,1.1,0.9,1.3c0.3-0.5,0.5-1.1,0.8-1.7C121.8,13.7,122,13.1,122.3,12.4z"/>
		<circle class="st0" cx="109.4" cy="19.3" r="1.1"/>
	</g>
</g>
</svg>
